\relax 
\providecommand\hyper@newdestlabel[2]{}
\providecommand\HyperFirstAtBeginDocument{\AtBeginDocument}
\HyperFirstAtBeginDocument{\ifx\hyper@anchor\@undefined
\global\let\oldcontentsline\contentsline
\gdef\contentsline#1#2#3#4{\oldcontentsline{#1}{#2}{#3}}
\global\let\oldnewlabel\newlabel
\gdef\newlabel#1#2{\newlabelxx{#1}#2}
\gdef\newlabelxx#1#2#3#4#5#6{\oldnewlabel{#1}{{#2}{#3}}}
\AtEndDocument{\ifx\hyper@anchor\@undefined
\let\contentsline\oldcontentsline
\let\newlabel\oldnewlabel
\fi}
\fi}
\global\let\hyper@last\relax 
\gdef\HyperFirstAtBeginDocument#1{#1}
\providecommand\HyField@AuxAddToFields[1]{}
\providecommand\HyField@AuxAddToCoFields[2]{}
\babel@aux{english}{}
\newlabel{index::doc}{{}{1}{}{section*.2}{}}
\@writefile{toc}{\contentsline {chapter}{\numberline {1}PROBLEM STATEMENT}{3}{chapter.1}}
\@writefile{lof}{\addvspace {10\p@ }}
\@writefile{lot}{\addvspace {10\p@ }}
\newlabel{index:problem-statement}{{1}{3}{PROBLEM STATEMENT}{chapter.1}{}}
\@writefile{toc}{\contentsline {chapter}{\numberline {2}SOLUTION}{5}{chapter.2}}
\@writefile{lof}{\addvspace {10\p@ }}
\@writefile{lot}{\addvspace {10\p@ }}
\newlabel{index:solution}{{2}{5}{SOLUTION}{chapter.2}{}}
\@writefile{toc}{\contentsline {chapter}{\numberline {3}DATA}{7}{chapter.3}}
\@writefile{lof}{\addvspace {10\p@ }}
\@writefile{lot}{\addvspace {10\p@ }}
\newlabel{index:data}{{3}{7}{DATA}{chapter.3}{}}
\@writefile{toc}{\contentsline {chapter}{\numberline {4}TRAINING}{9}{chapter.4}}
\@writefile{lof}{\addvspace {10\p@ }}
\@writefile{lot}{\addvspace {10\p@ }}
\newlabel{index:training}{{4}{9}{TRAINING}{chapter.4}{}}
\@writefile{toc}{\contentsline {chapter}{\numberline {5}TESTING}{11}{chapter.5}}
\@writefile{lof}{\addvspace {10\p@ }}
\@writefile{lot}{\addvspace {10\p@ }}
\newlabel{index:testing}{{5}{11}{TESTING}{chapter.5}{}}
\@writefile{toc}{\contentsline {chapter}{\numberline {6}VAE/GAN models}{13}{chapter.6}}
\@writefile{lof}{\addvspace {10\p@ }}
\@writefile{lot}{\addvspace {10\p@ }}
\newlabel{index:module-vae_gan}{{6}{13}{VAE/GAN models}{chapter.6}{}}
\newlabel{index:vae-gan-models}{{6}{13}{VAE/GAN models}{chapter.6}{}}
\newlabel{index:vae_gan.Discriminator}{{6}{13}{VAE/GAN models}{section*.3}{}}
\newlabel{index:vae_gan.Discriminator.forward}{{6}{13}{VAE/GAN models}{section*.4}{}}
\newlabel{index:vae_gan.Encoder}{{6}{13}{VAE/GAN models}{section*.5}{}}
\newlabel{index:vae_gan.Encoder.forward}{{6}{13}{VAE/GAN models}{section*.6}{}}
\newlabel{index:vae_gan.Generator}{{6}{13}{VAE/GAN models}{section*.7}{}}
\newlabel{index:vae_gan.Generator.forward}{{6}{13}{VAE/GAN models}{section*.8}{}}
\@writefile{toc}{\contentsline {chapter}{\numberline {7}Dataset}{15}{chapter.7}}
\@writefile{lof}{\addvspace {10\p@ }}
\@writefile{lot}{\addvspace {10\p@ }}
\newlabel{index:module-dataset}{{7}{15}{Dataset}{chapter.7}{}}
\newlabel{index:dataset}{{7}{15}{Dataset}{chapter.7}{}}
\newlabel{index:dataset.TextDataset}{{7}{15}{Dataset}{section*.9}{}}
\newlabel{index:dataset.TextDataset.get_img}{{7}{15}{Dataset}{section*.10}{}}
\newlabel{index:dataset.TextDataset.load_all_captions}{{7}{15}{Dataset}{section*.11}{}}
\newlabel{index:dataset.TextDataset.load_bbox}{{7}{15}{Dataset}{section*.12}{}}
\newlabel{index:dataset.TextDataset.load_embedding}{{7}{15}{Dataset}{section*.13}{}}
\newlabel{index:dataset.TextDataset.load_filenames}{{7}{15}{Dataset}{section*.14}{}}
\@writefile{toc}{\contentsline {chapter}{\numberline {8}Indices and tables}{17}{chapter.8}}
\@writefile{lof}{\addvspace {10\p@ }}
\@writefile{lot}{\addvspace {10\p@ }}
\newlabel{index:indices-and-tables}{{8}{17}{Indices and tables}{chapter.8}{}}
\@writefile{toc}{\contentsline {chapter}{Python Module Index}{19}{section*.15}}
