\babel@toc {english}{}
\contentsline {chapter}{\numberline {1}PROBLEM STATEMENT}{3}{chapter.1}
\contentsline {chapter}{\numberline {2}SOLUTION}{5}{chapter.2}
\contentsline {chapter}{\numberline {3}DATA}{7}{chapter.3}
\contentsline {chapter}{\numberline {4}TRAINING}{9}{chapter.4}
\contentsline {chapter}{\numberline {5}TESTING}{11}{chapter.5}
\contentsline {chapter}{\numberline {6}VAE/GAN models}{13}{chapter.6}
\contentsline {chapter}{\numberline {7}Dataset}{15}{chapter.7}
\contentsline {chapter}{\numberline {8}Indices and tables}{17}{chapter.8}
\contentsline {chapter}{Python Module Index}{19}{section*.15}
